R02_2 Pivot on tp theft
…
# View(res)

7 Pivot by dplyr::count()

# counting by dplyr::count()
res_count <- dplyr::count(df, time, region)
class(res_count)

## [1] "tbl_df"     "tbl"        "data.frame"

res_count

## # A tibble: 96 x 3
##    time  region     n
##    <chr> <chr>  <int>
##  1 01          27
##  2 01          12
##  3 01          10
##  4 01          11
##  5 01          21
##  6 01           7
##  7 01          27
##  8 01          12
##  9 01           8
## 10 01          11
## # ... with 86 more rows
…
